…
Pull Harder on the Strings of Lyrics with geniusR
=================================================

One thing I learned from HighlandR's post is the existence of the [`geniusR`](https://github.com/JosiahParry/geniusR) package by [Josiah Parry](https://twitter.com/josiahparry). `geniusR` gives access to lyrics from [Genius](https://genius.com/) as text data.

The first problem I encountered with downloading all Trivium albums is that Snøfall, an instrumental track at the beginning of Silence in the Snow, results to an error. The reason behind this is the presence of the special character "ø" in the title and it's absence in the url (<https://genius.com/Trivium-snfall-lyrics>).

``` r
# Get Silence in the Snow Album -------------------------------------------

genius_album("Trivium",
             "Silence in the snow")
```

    ## # A tibble: 458 x 3
    ##    title               track_n text                                       
    ##    <chr>                 <int> <chr>                                      
    ##  1 Silence In The Snow       2 Here we all stand on this canvas of white  
    ##  2 Silence In The Snow       2 Our palette holds but only one shade tonig~
    ##  3 Silence In The Snow       2 Silence snows in, in her wintery chill     
    ##  4 Silence In The Snow       2 Let's paint the ground red with the blood ~
    ##  5 Silence In The Snow       2 Kill                                       
    ##  6 Silence In The Snow       2 The battle goes                            
    ##  7 Silence In The Snow       2 Silence in the snow                        
    ##  8 Silence In The Snow       2 We must fight till they all die            
    ##  9 Silence In The Snow       2 In their cold blood                        
    ## 10 Silence In The Snow       2 Silence in the snow                        
    ## # ... with 448 more rows
…
