The Crusade: Text Mining Trivium Songs
…
One gem I found in Silges Holmes post is David Robinsons personal R package drlib. It has several useful functions, but I used the combination of reorder_within() and scale_x_reorder() to make my plots prettier.

Pull Harder on the Strings of Lyrics with geniusR

One thing I learned from HighlandRs post is the existence of the geniusR package by Josiah Parry. geniusR gives access to lyrics from Genius as text data.

The first problem I encountered with downloading all Trivium albums is that Snfall, an instrumental track at the beginning of Silence in the Snow, results to an error. The reason behind this is the presence of the special character  in the title and its absence in the url (https://genius.com/Trivium-snfall-lyrics).

# Get Silence in the Snow Album -------------------------------------------

genius_album("Trivium",
             "Silence in the snow")

## # A tibble: 458 x 3
##    title               track_n text                                       
##    <chr>                 <int> <chr>                                      
##  1 Silence In The Snow       2 Here we all stand on this canvas of white  
##  2 Silence In The Snow       2 Our palette holds but only one shade tonig~
##  3 Silence In The Snow       2 Silence snows in, in her wintery chill     
##  4 Silence In The Snow       2 Let's paint the ground red with the blood ~
##  5 Silence In The Snow       2 Kill                                       
##  6 Silence In The Snow       2 The battle goes                            
##  7 Silence In The Snow       2 Silence in the snow                        
##  8 Silence In The Snow       2 We must fight till they all die            
##  9 Silence In The Snow       2 In their cold blood                        
## 10 Silence In The Snow       2 Silence in the snow                        
## # ... with 448 more rows
…
